[
  {
    "nodeid": "tests/crm/test_customer_search_regressions.py::test_search_customer_by_unknown_website_id_returns_empty_page_not_500",
    "outcome": "failed",
    "longrepr": "crm_client = APIClient(settings=APISettings(name='crm', base_url='https://crmstage-external-integrations-di-dev.dreamisland.ru', ap.../v1/crm-external-integrations/customers/search\"}', 'elapsed_ms': 12679.08}, classification='infra')], test_reports=[]))\ncrm_openapi = {'components': {'schemas': {'AdditionalData': {'properties': {'id': {'anyOf': [...], 'title': 'Id'}, 'object_type': {'...)'}, '401': {'content': {...}, 'description': 'Не авторизован (отсутствует или неверный API-ключ)'}, ...}, ...}}, ...}}\n\n    @pytest.mark.crm\n    @pytest.mark.integration\n    @pytest.mark.regression\n    def test_search_customer_by_unknown_website_id_returns_empty_page_not_500(crm_client, crm_openapi: dict) -> None:\n        payload = {\n            \"filter\": {\n                \"website_id\": \"WS-0999\",\n            },\n            \"page\": 1,\n            \"page_size\": 20,\n        }\n        response = crm_client.post(\"/api/v1/crm-external-integrations/customers/search\", json=payload, timeout=10)\n>       assert response.status_code == 200, response.text\nE       AssertionError: {\"error\":\"Внутренняя ошибка сервера\",\"error_code\":\"INTERNAL_ERROR\",\"detail\":\"Произошла непредвиденная ошибка. Свяжитесь с поддержкой API, если проблема не исчезнет.\",\"timestamp\":\"2026-04-26T12:48:55.663344+00:00\",\"path\":\"/api/v1/crm-external-integrations/customers/search\"}\nE       assert 500 == 200\nE        +  where 500 = <Response [500]>.status_code\n\ntests\\crm\\test_customer_search_regressions.py:21: AssertionError"
  },
  {
    "nodeid": "tests/crm/test_customer_search_regressions.py::test_search_customer_rejects_undocumented_id_scalar_filter",
    "outcome": "failed",
    "longrepr": "crm_client = APIClient(settings=APISettings(name='crm', base_url='https://crmstage-external-integrations-di-dev.dreamisland.ru', ap... +  where 500 = <Response [500]>.status_code\\n\\ntests\\\\crm\\\\test_customer_search_regressions.py:21: AssertionError'}]))\ntest_data = TestData(email='n.tadzhibaeva@gmail.com', customer_id=554781, website_id='1000636', discount_card_number='1000636', mi...on_template_system_name='ZaprosVosstanovleniyaParolya', contact_point_id='ecom_contact_point', promotion_order_id=None)\n\n    @pytest.mark.crm\n    @pytest.mark.negative\n    @pytest.mark.regression\n    def test_search_customer_rejects_undocumented_id_scalar_filter(crm_client, test_data) -> None:\n        payload = {\n            \"filter\": {\n                \"id\": test_data.customer_id,\n            },\n            \"page\": 1,\n            \"page_size\": 20,\n        }\n        response = crm_client.post(\"/api/v1/crm-external-integrations/customers/search\", json=payload, timeout=10)\n>       assert response.status_code in {400, 422}, response.text\nE       AssertionError: {\"total\":554869,\"page\":1,\"page_size\":20,\"total_pages\":27744,\"customers\":[{\"id\":1,\"website_id\":\"525205\",\"discount_card_number\":null,\"discount_card_issued_at\":null,\"mindbox_id\":\"525205\",\"external_id\":\"525205\",\"sex\":null,\"first_name\":null,\"last_name\":null,\"middle_name\":null,\"timezone\":null,\"birth_date\":null,\"registration_date\":\"2026-02-12T00:24:08\",\"email\":\"monitoring.gl-vwdjh.f0bab0e5-6141-4ec7-9128-0b2622f63a04@tech-monitoring.com\",\"pending_email\":null,\"is_email_invalid\":false,\"is_email_confirmed\":false,\"mobile_phone\":null,\"pending_mobile_phone\":null,\"is_mobile_phone_invalid\":false,\"is_mobile_phone_confirmed\":false,\"custom_fields\":[],\"email_subscription_status\":null,\"push_subscription_status\":null},{\"id\":2,\"website_id\":\"451\",\"discount_card_number\":\"451\",\"discount_card_issued_at\":\"2026-03-13T19:48:11\",\"mindbox_id\":\"539375\",\"external_id\":\"539375\",\"sex\":null,\"first_name\":null,\"last_name\":null,\"middle_name\":null,\"timezone\":\"Europe/Moscow\",\"birth_date\":null,\"registration_date\":\"2024-10-04T10:45:07\",\"email\":\"ntl.27@mail.ru\",\"pending_email\":null,\"is_email_invalid\":false,\"is_email_confirmed\":false,\"mobile_phone\":\"79169147684\",\"pending_mobile_phone\":null,\"is_mobile_phone_invalid\":false,\"is_mobile_phone_confirmed\":false,\"custom_fields\":[],\"email_subscription_status\":null,\"push_subscription_status\":null},{\"id\":3,\"website_id\":\"4912\",\"discount_card_number\":\"4912\",\"discount_card_issued_at\":\"2026-03-13T19:48:11\",\"mindbox_id\":\"539376\",\"external_id\":\"539376\",\"sex\":null,\"first_name\":null,\"last_name\":null,\"middle_name\":null,\"timezone\":\"Europe/Moscow\",\"birth_date\":null,\"registration_date\":\"2024-10-04T14:07:47\",\"email\":\"agrbalisa@mail.ru\",\"pending_email\":null,\"is_email_invalid\":false,\"is_email_confirmed\":false,\"mobile_phone\":\"79252358387\",\"pending_mobile_phone\":null,\"is_mobile_phone_invalid\":false,\"is_mobile_phone_confirmed\":false,\"custom_fields\":[],\"email_subscription_status\":null,\"push_subscription_status\":null},{\"id\":4,\"website_id\":\"5191\",\"discount_card_number\":\"5191\",\"discount_card_issued_at\":\"2026-03-13T19:48:11\",\"mindbox_id\":\"539377\",\"external_id\":\"539377\",\"sex\":null,\"first_name\":null,\"last_name\":null,\"middle_name\":null,\"timezone\":\"Europe/Moscow\",\"birth_date\":null,\"registration_date\":\"2024-10-04T14:08:09\",\"email\":\"aleksandra.lukyanova.1992@mail.ru\",\"pending_email\":null,\"is_email_invalid\":false,\"is_email_confirmed\":false,\"mobile_phone\":\"79099342941\",\"pending_mobile_phone\":null,\"is_mobile_phone_invalid\":false,\"is_mobile_phone_confirmed\":false,\"custom_fields\":[],\"email_subscription_status\":null,\"push_subscription_status\":null},{\"id\":5,\"website_id\":\"5144\",\"discount_card_number\":\"5144\",\"discount_card_issued_at\":\"2026-03-13T19:48:11\",\"mindbox_id\":\"539379\",\"external_id\":\"539379\",\"sex\":null,\"first_name\":null,\"last_name\":null,\"middle_name\":null,\"timezone\":\"Asia/Tomsk\",\"birth_date\":null,\"registration_date\":\"2024-10-04T14:08:05\",\"email\":\"berezovskaya-olechka@yandex.ru\",\"pending_email\":null,\"is_email_invalid\":false,\"is_email_confirmed\":false,\"mobile_phone\":\"79138586265\",\"pending_mobile_phone\":null,\"is_mobile_phone_invalid\":false,\"is_mobile_phone_confirmed\":false,\"custom_fields\":[],\"email_subscription_status\":null,\"push_subscription_status\":null},{\"id\":6,\"website_id\":\"4996\",\"discount_card_number\":\"4996\",\"discount_card_issued_at\":\"2026-03-13T19:48:11\",\"mindbox_id\":\"539380\",\"external_id\":\"539380\",\"sex\":null,\"first_name\":null,\"last_name\":null,\"middle_name\":null,\"timezone\":\"Europe/Moscow\",\"birth_date\":null,\"registration_date\":\"2024-10-04T14:07:53\",\"email\":\"Kuda_p@mail.ru\",\"pending_email\":null,\"is_email_invalid\":false,\"is_email_confirmed\":false,\"mobile_phone\":\"79164433545\",\"pending_mobile_phone\":null,\"is_mobile_phone_invalid\":false,\"is_mobile_phone_confirmed\":false,\"custom_fields\":[],\"email_subscription_status\":null,\"push_subscription_status\":null},{\"id\":7,\"website_id\":\"449\",\"discount_card_number\":\"449\",\"discount_card_issued_at\":\"2026-03-13T19:48:11\",\"mindbox_id\":\"539381\",\"external_id\":\"539381\",\"sex\":\"female\",\"first_name\":\"Екатерина\",\"last_name\":\"Никишина\",\"middle_name\":null,\"timezone\":null,\"birth_date\":null,\"registration_date\":\"2025-06-19T16:18:13\",\"email\":\"evnikishina@mail.ru\",\"pending_email\":null,\"is_email_invalid\":false,\"is_email_confirmed\":false,\"mobile_phone\":null,\"pending_mobile_phone\":null,\"is_mobile_phone_invalid\":false,\"is_mobile_phone_confirmed\":false,\"custom_fields\":[],\"email_subscription_status\":null,\"push_subscription_status\":null},{\"id\":8,\"website_id\":\"178\",\"discount_card_number\":\"178\",\"discount_card_issued_at\":\"2026-03-13T19:48:11\",\"mindbox_id\":\"539383\",\"external_id\":\"539383\",\"sex\":null,\"first_name\":null,\"last_name\":null,\"middle_name\":null,\"timezone\":null,\"birth_date\":null,\"registration_date\":\"2024-10-04T10:42:42\",\"email\":\"Olga.Gogoleva-spb@yandex.ru\",\"pending_email\":null,\"is_email_invalid\":false,\"is_email_confirmed\":false,\"mobile_phone\":null,\"pending_mobile_phone\":null,\"is_mobile_phone_invalid\":false,\"is_mobile_phone_confirmed\":false,\"custom_fields\":[],\"email_subscription_status\":null,\"push_subscription_status\":null},{\"id\":9,\"website_id\":\"4896\",\"discount_card_number\":\"4896\",\"discount_card_issued_at\":\"2026-03-13T19:48:11\",\"mindbox_id\":\"539384\",\"external_id\":\"539384\",\"sex\":null,\"first_name\":null,\"last_name\":null,\"middle_name\":null,\"timezone\":\"Europe/Moscow\",\"birth_date\":null,\"registration_date\":\"2024-10-04T14:07:45\",\"email\":\"Lishik_e@mail.ru\",\"pending_email\":null,\"is_email_invalid\":false,\"is_email_confirmed\":false,\"mobile_phone\":\"79263184093\",\"pending_mobile_phone\":null,\"is_mobile_phone_invalid\":false,\"is_mobile_phone_confirmed\":false,\"custom_fields\":[],\"email_subscription_status\":null,\"push_subscription_status\":null},{\"id\":10,\"website_id\":\"5023\",\"discount_card_number\":\"5023\",\"discount_card_issued_at\":\"2026-03-13T19:48:11\",\"mindbox_id\":\"539385\",\"external_id\":\"539385\",\"sex\":null,\"first_name\":null,\"last_name\":null,\"middle_name\":null,\"timezone\":\"Europe/Moscow\",\"birth_date\":null,\"registration_date\":\"2024-10-04T14:07:55\",\"email\":\"niknik@yandex.ru\",\"pending_email\":null,\"is_email_invalid\":false,\"is_email_confirmed\":false,\"mobile_phone\":\"79166236496\",\"pending_mobile_phone\":null,\"is_mobile_phone_invalid\":false,\"is_mobile_phone_confirmed\":false,\"custom_fields\":[],\"email_subscription_status\":null,\"push_subscription_status\":null},{\"id\":11,\"website_id\":\"5077\",\"discount_card_number\":\"5077\",\"discount_card_issued_at\":\"2026-03-13T19:48:11\",\"mindbox_id\":\"539386\",\"external_id\":\"539386\",\"sex\":null,\"first_name\":null,\"last_name\":null,\"middle_name\":null,\"timezone\":\"Europe/Moscow\",\"birth_date\":null,\"registration_date\":\"2024-10-04T14:08:00\",\"email\":\"Mailbox.lena@gmail.com\",\"pending_email\":null,\"is_email_invalid\":false,\"is_email_confirmed\":false,\"mobile_phone\":\"79629169992\",\"pending_mobile_phone\":null,\"is_mobile_phone_invalid\":false,\"is_mobile_phone_confirmed\":false,\"custom_fields\":[],\"email_subscription_status\":null,\"push_subscription_status\":null},{\"id\":12,\"website_id\":\"114\",\"discount_card_number\":\"114\",\"discount_card_issued_at\":\"2026-03-13T19:48:11\",\"mindbox_id\":\"539387\",\"external_id\":\"539387\",\"sex\":null,\"first_name\":\"Тестовы\",\"last_name\":\"Тестович\",\"middle_name\":null,\"timezone\":null,\"birth_date\":null,\"registration_date\":\"2025-06-19T16:18:14\",\"email\":\"yuri@timofeev.su\",\"pending_email\":null,\"is_email_invalid\":false,\"is_email_confirmed\":false,\"mobile_phone\":null,\"pending_mobile_phone\":null,\"is_mobile_phone_invalid\":false,\"is_mobile_phone_confirmed\":false,\"custom_fields\":[],\"email_subscription_status\":null,\"push_subscription_status\":null},{\"id\":13,\"website_id\":\"5185\",\"discount_card_number\":\"5185\",\"discount_card_issued_at\":\"2026-03-13T19:48:11\",\"mindbox_id\":\"539388\",\"external_id\":\"539388\",\"sex\":null,\"first_name\":null,\"last_name\":null,\"middle_name\":null,\"timezone\":\"Europe/Moscow\",\"birth_date\":null,\"registration_date\":\"2024-10-04T14:08:08\",\"email\":\"Vitalevna.n@yandex.ru\",\"pending_email\":null,\"is_email_invalid\":false,\"is_email_confirmed\":false,\"mobile_phone\":\"79263770408\",\"pending_mobile_phone\":null,\"is_mobile_phone_invalid\":false,\"is_mobile_phone_confirmed\":false,\"custom_fields\":[],\"email_subscription_status\":null,\"push_subscription_status\":null},{\"id\":14,\"website_id\":\"5213\",\"discount_card_number\":\"5213\",\"discount_card_issued_at\":\"2026-03-13T19:48:11\",\"mindbox_id\":\"539389\",\"external_id\":\"539389\",\"sex\":null,\"first_name\":null,\"last_name\":null,\"middle_name\":null,\"timezone\":\"Europe/Moscow\",\"birth_date\":null,\"registration_date\":\"2024-10-04T14:08:11\",\"email\":\"madam.leda@yandex.ru\",\"pending_email\":null,\"is_email_invalid\":false,\"is_email_confirmed\":false,\"mobile_phone\":\"79104522975\",\"pending_mobile_phone\":null,\"is_mobile_phone_invalid\":false,\"is_mobile_phone_confirmed\":false,\"custom_fields\":[],\"email_subscription_status\":null,\"push_subscription_status\":null},{\"id\":15,\"website_id\":\"404\",\"discount_card_number\":\"404\",\"discount_card_issued_at\":\"2026-03-13T19:48:11\",\"mindbox_id\":\"539390\",\"external_id\":\"539390\",\"sex\":null,\"first_name\":null,\"last_name\":null,\"middle_name\":null,\"timezone\":\"Europe/Moscow\",\"birth_date\":null,\"registration_date\":\"2024-10-04T10:44:43\",\"email\":\"79160601606@yandex.ru\",\"pending_email\":null,\"is_email_invalid\":false,\"is_email_confirmed\":false,\"mobile_phone\":\"79160601606\",\"pending_mobile_phone\":null,\"is_mobile_phone_invalid\":false,\"is_mobile_phone_confirmed\":false,\"custom_fields\":[],\"email_subscription_status\":null,\"push_subscription_status\":null},{\"id\":16,\"website_id\":\"4964\",\"discount_card_number\":\"4964\",\"discount_card_issued_at\":\"2026-03-13T19:48:11\",\"mindbox_id\":\"539391\",\"external_id\":\"539391\",\"sex\":null,\"first_name\":null,\"last_name\":null,\"middle_name\":null,\"timezone\":\"Europe/Moscow\",\"birth_date\":null,\"registration_date\":\"2024-10-04T14:07:51\",\"email\":\"Cru104@mail.ru\",\"pending_email\":null,\"is_email_invalid\":false,\"is_email_confirmed\":false,\"mobile_phone\":\"79037642290\",\"pending_mobile_phone\":null,\"is_mobile_phone_invalid\":false,\"is_mobile_phone_confirmed\":false,\"custom_fields\":[],\"email_subscription_status\":null,\"push_subscription_status\":null},{\"id\":17,\"website_id\":\"4870\",\"discount_card_number\":\"4870\",\"discount_card_issued_at\":\"2026-03-13T19:48:11\",\"mindbox_id\":\"539392\",\"external_id\":\"539392\",\"sex\":null,\"first_name\":null,\"last_name\":null,\"middle_name\":null,\"timezone\":\"Europe/Moscow\",\"birth_date\":null,\"registration_date\":\"2024-10-04T14:07:43\",\"email\":\"pytui@inbox.ru\",\"pending_email\":null,\"is_email_invalid\":false,\"is_email_confirmed\":false,\"mobile_phone\":\"79268779935\",\"pending_mobile_phone\":null,\"is_mobile_phone_invalid\":false,\"is_mobile_phone_confirmed\":false,\"custom_fields\":[],\"email_subscription_status\":null,\"push_subscription_status\":null},{\"id\":18,\"website_id\":\"657\",\"discount_card_number\":\"657\",\"discount_card_issued_at\":\"2026-03-13T19:48:11\",\"mindbox_id\":\"539393\",\"external_id\":\"539393\",\"sex\":null,\"first_name\":null,\"last_name\":null,\"middle_name\":null,\"timezone\":\"Europe/Moscow\",\"birth_date\":null,\"registration_date\":\"2024-10-04T10:46:52\",\"email\":\"andrey_home_555@mail.ru\",\"pending_email\":null,\"is_email_invalid\":false,\"is_email_confirmed\":false,\"mobile_phone\":\"79156462515\",\"pending_mobile_phone\":null,\"is_mobile_phone_invalid\":false,\"is_mobile_phone_confirmed\":false,\"custom_fields\":[],\"email_subscription_status\":null,\"push_subscription_status\":null},{\"id\":19,\"website_id\":\"5149\",\"discount_card_number\":\"5149\",\"discount_card_issued_at\":\"2026-03-13T19:48:11\",\"mindbox_id\":\"539395\",\"external_id\":\"539395\",\"sex\":null,\"first_name\":null,\"last_name\":null,\"middle_name\":null,\"timezone\":\"Europe/Samara\",\"birth_date\":null,\"registration_date\":\"2024-10-04T14:08:05\",\"email\":\"bboris85@icloud.com\",\"pending_email\":null,\"is_email_invalid\":false,\"is_email_confirmed\":false,\"mobile_phone\":\"79127455854\",\"pending_mobile_phone\":null,\"is_mobile_phone_invalid\":false,\"is_mobile_phone_confirmed\":false,\"custom_fields\":[],\"email_subscription_status\":null,\"push_subscription_status\":null},{\"id\":20,\"website_id\":\"5152\",\"discount_card_number\":\"5152\",\"discount_card_issued_at\":\"2026-03-13T19:48:11\",\"mindbox_id\":\"539396\",\"external_id\":\"539396\",\"sex\":null,\"first_name\":null,\"last_name\":null,\"middle_name\":null,\"timezone\":\"Europe/Moscow\",\"birth_date\":null,\"registration_date\":\"2024-10-04T14:08:05\",\"email\":\"Lambantovbratunova@mail.ru\",\"pending_email\":null,\"is_email_invalid\":false,\"is_email_confirmed\":false,\"mobile_phone\":\"79778864214\",\"pending_mobile_phone\":null,\"is_mobile_phone_invalid\":false,\"is_mobile_phone_confirmed\":false,\"custom_fields\":[],\"email_subscription_status\":null,\"push_subscription_status\":null}]}\nE       assert 200 in {400, 422}\nE        +  where 200 = <Response [200]>.status_code\n\ntests\\crm\\test_customer_search_regressions.py:59: AssertionError"
  }
]